ansible==6.7.0
ansible-core==2.13.7
ansible-lint==5.4.0
attrs==22.2.0
bcrypt==4.0.1
bracex==2.3.post1
certifi==2022.12.7
cffi==1.15.1
charset-normalizer==3.0.1
cryptography==39.0.1
distro==1.8.0
docker==6.0.1
docker-compose==1.29.2
dockerpty==0.4.1
docopt==0.6.2
enrich==1.2.7
idna==3.4
Jinja2==3.1.2
jsondiff==2.0.0
jsonschema==3.2.0
markdown-it-py==2.1.0
MarkupSafe==2.1.2
mdurl==0.1.2
packaging==23.0
paramiko==3.0.0
pathspec==0.11.0
pycparser==2.21
Pygments==2.14.0
PyNaCl==1.5.0
pyOpenSSL==23.0.0
pyrsistent==0.19.3
python-dotenv==0.21.1
PyYAML==5.4.1
requests==2.28.2
resolvelib==0.8.1
rich==13.3.1
ruamel.yaml==0.17.21
ruamel.yaml.clib==0.2.7
six==1.16.0
tenacity==8.2.1
texttable==1.6.7
typing-extensions==4.5.0
urllib3==1.26.14
wcmatch==8.4.1
websocket-client==0.59.0
yamllint==1.29.0
